Muizzkolapo
…
#previewing the dataset
airline_data 

## # A tibble: 3,339 x 9
##       X1 tweet_id sentiment airline retweet_count text  tweet_created
##    <dbl> <chr>    <chr>     <chr>           <dbl> <chr> <chr>        
##  1     0 Tr_twee… neutral   Virgin…             0 "@Vi… 2015-02-24 1…
##  2     1 Tr_twee… positive  Virgin…             0 "@Vi… 2015-02-24 1…
##  3     2 Tr_twee… neutral   Virgin…             0 "@Vi… 2015-02-24 1…
##  4     3 Tr_twee… negative  Virgin…             0 "@Vi… 2015-02-24 1…
##  5     4 Tr_twee… negative  Virgin…             0 "@Vi… 2015-02-24 1…
##  6     5 Tr_twee… negative  Virgin…             0 "@Vi… 2015-02-24 1…
##  7     6 Tr_twee… positive  Virgin…             0 "@Vi… 2015-02-24 1…
##  8     7 Tr_twee… positive  Virgin…             0 "@vi… 2015-02-24 1…
##  9     8 Tr_twee… positive  Virgin…             0 "@Vi… 2015-02-24 1…
## 10     9 Tr_twee… positive  Virgin…             0 "@Vi… <NA>         
## # … with 3,329 more rows, and 2 more variables: tweet_location <chr>,
## #   user_timezone <chr>

Plotting the tweets per hour#

The ts_plot() function from the rtweet package enables us to plot the frequency of tweets over a variety of time intervals (e.g. “secs”, “mins”, “hours”, “days”, “weeks”, “months”, “years”) in a ggplot2 plot. The output shows that we have the highest number of tweets coming in on February 20 and 23.

#Converting the tweet_created variable to a time object using anytime() function
airline_time <- airline_data %>%  mutate(time_conv = anytime(airline_data$tweet_created)) %>% na.omit()
airline_time

## # A tibble: 1,698 x 10
##       X1 tweet_id sentiment airline retweet_count text  tweet_created
##    <dbl> <chr>    <chr>     <chr>           <dbl> <chr> <chr>        
##  1     2 Tr_twee… neutral   Virgin…             0 @Vir… 2015-02-24 1…
##  2     6 Tr_twee… positive  Virgin…             0 @Vir… 2015-02-24 1…
##  3     7 Tr_twee… positive  Virgin…             0 @vir… 2015-02-24 1…
##  4     8 Tr_twee… positive  Virgin…             0 @Vir… 2015-02-24 1…
##  5    11 Tr_twee… positive  Virgin…             0 @Vir… 2015-02-24 1…
##  6    12 Tr_twee… negative  Virgin…             0 @Vir… 2015-02-24 1…
##  7    13 Tr_twee… positive  Virgin…             0 @Vir… 2015-02-24 0…
##  8    14 Tr_twee… positive  Virgin…             0 I ❤️… 2015-02-24 0…
##  9    15 Tr_twee… positive  Virgin…             0 @Vir… 2015-02-24 0…
## 10    18 Tr_twee… positive  Virgin…             0 @Vir… 2015-02-24 0…
## # … with 1,688 more rows, and 3 more variables: tweet_location <chr>,
## #   user_timezone <chr>, time_conv <dttm>
…
We tokenized the data by breaking each tweet or row into its own individual bag of words and each word in the tweet would be tokenized. This process helps make our dataset easier to analyze and helps convert the text into categorical datasets. As seen in the word column of the tidy_airline_unnested dataframe, each row now belongs to a tokenized term. We added a custom column “id” to the dataset so we can track the words that belongs to each tweet. The number of rows in the dataset has exploded from 3,339 rows to 58,563 rows. We would need to remove the stop words in this data to proceed with our analysis. We can see United is the most used term in the entire dataset which is expected and as such we would call this and terms such as virgin america stop words which will be removed.

#------------------------------------------------------
tidy_airline_unnested <- airline_data %>%
  #break text into component terms
  mutate(id = row_number()) %>%
  unnest_tokens(word,text)

#we will now do a count of words in the entire corpus(collection of documents)
tidy_airline_unnested %>%
  count(word) %>%
  arrange(desc(n))

## # A tibble: 6,424 x 2
##    word       n
##    <chr>  <int>
##  1 united  3075
##  2 to      1910
##  3 the     1360
##  4 i       1134
##  5 a       1076
##  6 you      974
##  7 for      859
##  8 flight   846
##  9 and      796
## 10 on       784
## # … with 6,414 more rows
…
We would be removing stop words from the dataset, these are words which are commonly used and would not add much to the emotional valence of our analysis. After using the anti-join to remove the stop words by returning words in our document not in the stop words, we notice the total number of rows reduced from 58,563 to 27,151 rows. The output still shows we have terms like united,virginamerica, t.co and http present which based on our rule of thumb for removing words (i.e if a word adds value to the emotional valence of the analysis) we will be removing them using a custom stop words we create using the tribble() function.

#create a new data that we have removed all stop words, we use the anti join method to sieve out the stop words in the data
tidy_airline_stop_words <- tidy_airline_unnested %>%
  anti_join(stop_words)

## Joining, by = "word"

#perform a count on the new data in descending order
tidy_airline_stop_words %>%
  count(word) %>%
  arrange(desc(n))

## # A tibble: 5,867 x 2
##    word              n
##    <chr>         <int>
##  1 united         3075
##  2 flight          846
##  3 virginamerica   463
##  4 t.co            263
##  5 http            251
##  6 service         218
##  7 time            187
##  8 customer        175
##  9 cancelled       169
## 10 bag             153
## # … with 5,857 more rows
…
Removing stop words using custom stop words#

We will be using the new stop words to remove the custom stop words in the dataset. The outcome below shows that the number of rows as reduced to around 20,000 which is as a result of our Anti-join process.

#using mutate to create a custom id for each row in the data, unnest to break the text column into the component words and put into new column word.
tidy_airline_stop_words <- airline_data %>%
  mutate(id = row_number()) %>%
  unnest_tokens(word,text) %>%
  anti_join(stop_words2)

## Joining, by = "word"

tidy_airline_stop_words

## # A tibble: 22,854 x 10
##       X1 tweet_id sentiment airline retweet_count tweet_created tweet_location
##    <dbl> <chr>    <chr>     <chr>           <dbl> <chr>         <chr>         
##  1     0 Tr_twee… neutral   Virgin…             0 2015-02-24 1… <NA>          
##  2     1 Tr_twee… positive  Virgin…             0 2015-02-24 1… <NA>          
##  3     1 Tr_twee… positive  Virgin…             0 2015-02-24 1… <NA>          
##  4     1 Tr_twee… positive  Virgin…             0 2015-02-24 1… <NA>          
##  5     1 Tr_twee… positive  Virgin…             0 2015-02-24 1… <NA>          
##  6     2 Tr_twee… neutral   Virgin…             0 2015-02-24 1… Lets Play     
##  7     3 Tr_twee… negative  Virgin…             0 2015-02-24 1… <NA>          
##  8     3 Tr_twee… negative  Virgin…             0 2015-02-24 1… <NA>          
##  9     3 Tr_twee… negative  Virgin…             0 2015-02-24 1… <NA>          
## 10     3 Tr_twee… negative  Virgin…             0 2015-02-24 1… <NA>          
## # … with 22,844 more rows, and 3 more variables: user_timezone <chr>, id <int>,
## #   word <chr>

Replotting the word counts#

After removing the stop words and custom stop words from the dataset we plotted the data as seen below. The outcome below shows the plot in an orderly manner and we can see that flight is the most used term.

#creating an ordered plot we will use factor ordering and mutate to order our data by the count of words
word_counts2 <- tidy_airline_stop_words %>%
  count(word) %>%
  mutate(word2 = fct_reorder(word,n))
word_counts2

## # A tibble: 5,861 x 3
##    word              n word2        
##    <chr>         <int> <fct>        
##  1 _austrian         1 _austrian    
##  2 0                 6 0            
##  3 0_0               1 0_0          
##  4 00                1 00           
##  5 000114            1 000114       
##  6 000419            1 000419       
##  7 0011              1 0011         
##  8 0016              3 0016         
##  9 00pm              2 00pm         
## 10 0162389030167     1 0162389030167
## # … with 5,851 more rows
…
Comparing the original sentiment to the new sentiment added#

We will be comparing the sentiment in the initial dataset to the new one created with the bing dictionary. We used innerjoin to match all the dataset we have in the bing sentiment data to the original since due to the usage of stop words and other data processing we have dropped some rows. So we want to see rows in the new sentiment data that does not have the same sentiment as the original dataset. We created a final dataset for all non matching rows of data between the two datasets.

select(tidy_airline_stop_words, sentiment,id,tweet_id,word) %>% count(word, sentiment,tweet_id,id, sort=TRUE)%>%
  ungroup() -> original_sentiment 
original_sentiment <-  original_sentiment %>%  mutate(method = "Original")
airline_new_bing <-airline_new_bing %>%  mutate(method = "New")
#joining original sentiment in data to the sentiment from bing dictionary
original_vs_bing <- inner_join(original_sentiment, airline_new_bing, by=c("word","tweet_id"))
#selecting all rows where sentiment not the same for the two methods
non_matching_sent <- original_vs_bing %>% filter(sentiment.x != sentiment.y)
non_matching_sent

## # A tibble: 772 x 10
##    word  sentiment.x tweet_id  id.x   n.x method.x sentiment.y  id.y   n.y
##    <chr> <chr>       <chr>    <int> <int> <chr>    <chr>       <int> <int>
##  1 cons… negative    Tr_twee…   885     2 Original positive      885     2
##  2 corr… neutral     Tr_twee…  2147     2 Original positive     2147     2
##  3 elite neutral     Tr_twee…  1492     2 Original positive     1492     2
##  4 expi… neutral     Tr_twee…   143     2 Original negative      143     2
##  5 fine  negative    Tr_twee…  1033     2 Original positive     1033     2
##  6 gold  negative    Tr_twee…  1006     2 Original positive     1006     2
##  7 help… negative    Tr_twee…  3150     2 Original positive     3150     2
##  8 honor neutral     Tr_twee…  1511     2 Original positive     1511     2
##  9 loya… negative    Tr_twee…  2450     2 Original positive     2450     2
## 10 pret… negative    Tr_twee…   630     2 Original positive      630     2
## # … with 762 more rows, and 1 more variable: method.y <chr>
…
creating a dataframe from the LDA output#

We will evaluate the model output by using the tidy() function, we specify the required arguments. The output shows us a dictionary of all the words in our corpus sorted according to the probability of them occurring in a particular topic.

# Tidy the matrix of word probabilities
lda_topics2 <- lda_out2 %>% 
  tidy(matrix= "beta")
# Arrange the topics by word probabilities in descending order
lda_topics2 %>% 
  arrange(desc(beta))

## # A tibble: 11,722 x 3
##    topic term        beta
##    <int> <chr>      <dbl>
##  1     2 flight    0.0701
##  2     1 service   0.0182
##  3     1 time      0.0150
##  4     1 customer  0.0146
##  5     2 cancelled 0.0140
##  6     2 delayed   0.0123
##  7     1 bag       0.0122
##  8     2 flights   0.0122
##  9     2 plane     0.0119
## 10     1 amp       0.0116
## # … with 11,712 more rows
…
# Tidy the matrix of word probabilities
lda_topics3 <- lda_out3 %>% 
  tidy(matrix= "beta")
# Arrange the topics by word probabilities in descending order
lda_topics3 %>% 
  arrange(desc(beta))

## # A tibble: 17,583 x 3
##    topic term        beta
##    <int> <chr>      <dbl>
##  1     2 flight    0.103 
##  2     1 service   0.0263
##  3     1 customer  0.0211
##  4     2 cancelled 0.0205
##  5     1 time      0.0199
##  6     2 delayed   0.0179
##  7     2 flights   0.0175
##  8     3 amp       0.0170
##  9     1 plane     0.0153
## 10     3 bag       0.0149
## # … with 17,573 more rows
…
We want to explore the terms that have the greatest differences in their word probability between topic 1 and topic 2. We will be using the log ratio of the two to perform this task using the formular: log(beta1/beta2). When we look at the odds of an event, we can see that we have two ratios one of them is usually from 0-1 and the other 1- infinity. This asymmetry makes it difficult to compare one odd against another directly. This can be solved by taking the logs of both odds which makes the outcome symmetrical which we did below.

beta_spread <- lda_topics2 %>%
  #using the paste0 and mutate function to manipulate the values in the topic columns by adding extra strings
  mutate(topic = paste0("topic", topic)) %>%
  #Using the spread function to change the shape of our data based on the contents of the topic column
  spread(topic, beta) %>%
  #filtering for values having a beta value of greater than 0.001 for either topic 1 or topic 2
  filter(topic1 > 0.001 | topic2 > 0.001) %>%
  #using the mutate function to perform the numerical operation
  mutate(logratio = log2(topic2 / topic1))
beta_spread

## # A tibble: 322 x 4
##    term      topic1     topic2 logratio
##    <chr>      <dbl>      <dbl>    <dbl>
##  1 1     0.00544    0.00000829    -9.36
##  2 10    0.00294    0.000174      -4.08
##  3 100   0.00160    0.00000829    -7.59
##  4 15    0.00000836 0.00208        7.96
##  5 1k    0.00000836 0.00175        7.71
##  6 1st   0.00185    0.000671      -1.46
##  7 20    0.00000836 0.00324        8.60
##  8 200   0.00000836 0.00125        7.23
##  9 2015  0.00101    0.00000829    -6.93
## 10 25    0.00118    0.000257      -2.20
## # … with 312 more rows
…
